{
  "project_info": {
    "project_number": "631418052494",
    "firebase_url": "https://test-7ac13.firebaseio.com",
    "project_id": "test-7ac13",
    "storage_bucket": "test-7ac13.appspot.com"
  },
  "client": [
    {
      "client_info": {
        "mobilesdk_app_id": "1:631418052494:android:cd829f549d223253",
        "android_client_info": {
          "package_name": "com.balanpaul.dishfire"
        }
      },
      "oauth_client": [
        {
          "client_id": "631418052494-54m1gshbn0h3rai4ohmmqge662mhmopp.apps.googleusercontent.com",
          "client_type": 3
        }
      ],
      "api_key": [
        {
          "current_key": "AIzaSyCfAnqWU0qE_U2DMJxE2PV203qPINeYebI"
        }
      ],
      "services": {
        "analytics_service": {
          "status": 1
        },
        "appinvite_service": {
          "status": 1,
          "other_platform_oauth_client": []
        },
        "ads_service": {
          "status": 2
        }
      }
    }
  ],
  "configuration_version": "1"
}